{
  "devToolsPort": 19002,
  "expoServerPort": 19000,
  "packagerPort": 19001,
  "packagerPid": 31810,
  "expoServerNgrokUrl": null,
  "packagerNgrokUrl": null,
  "ngrokPid": null,
  "webpackServerPort": 19006
}